;Start;End;Sequence
0;32;81;MASxDKNGxSxSSVSSSRLQSRKPPNLSITIPPPExxxxAPxEQxSMLPx
1;110;130;xxxNPAYLKSVSLQEPRxRWQ
2;132;242;ExxxEKRPGFRRQASLSQSIRKGAAQWFGVSGDWEGKRQHWQRRSLHHCSVRYGRLKASCQRDLELPSQEVPSFQGTESPKPCKMPKIVDPLARGRAFRHPDEVDRPHAPH
3;246;333;PPLTPGVLSLTSFTSVRSGYSHLPRRKRxSVAHMSFQAAAALLKGRSVLDATGQRCRVVKRSFAYPSFLEEDVVDGADTFDSSFFSKE
4;341;384;EMSSMPDDVFESPPLSASYFRGxPxSASPVSPDxVxIPLKExGx
5;397;397;A
6;399;457;xxPxxxRGKRIASKVKHFAFDRKKRHYGLGVVGNWLNRxYRRSISSTVQRQLESFDSHR
7;469;530;PYFTYWLTFVHIIITLLVICTYGIAPVGFAQHVTTQLVLRNKGVYESVKYIQQENFWIGPSS
8;590;758;IDLIHLGAKFSPCIRKDxQIEQLVLRERDLERDSGCCVQNDxSGCIQTQRKDCSETLATFVKWQDDTGPPMDKSDLGQKRTSGAVCHQDPRTCEEPASSGAHIWPDDITKWPICTEQAxSNHTGFLHMDCxIKGRPCCIGTKGSCEITTREYCEFMHGYFHEEATLCSQ
9;789;821;VHCLDKVCGLLPFLNPEVPDQFYRLWLSLFLHA
